{
  "MockStableCoin": {
    "address": "0x2139cc303b72cf1cd4cdf92afa3afc11cd129493",
    "isProxy": false
  },
  "EthicHubStorage": {
    "address": "0x05f3D669dB06Eb68cc5DC15ecd14188Ff410F212",
    "isProxy": false
  },
  "EthicHubDepositManager": { "address": "0x3679843D6e477526cf14867A17CA20bD10408278", "isProxy": false }
}
